post-sim media/dump.vcd
$date
	Wed Aug  6 00:39:16 2025
$end
$version
	QuestaSim Version 2024.3_1
$end
$timescale
	1ns
$end

$scope module tb $end
$var reg 1 ! clk $end

$scope module _if $end
$var reg 1 " done $end
$var reg 1 # in $end
$var reg 8 $ out_byte [7:0] $end
$var reg 1 % reset $end
$var reg 1 & clk $end
$upscope $end

$scope module _tbif $end
$var reg 8 ' in_byte [7:0] $end
$var reg 1 ( odd_parity $end
$var reg 1 ) par_bit $end
$var reg 1 * pckt_sent $end
$var reg 1 + stop_bit $end
$upscope $end

$scope module u0 $end
$var wire 1 , clk $end
$var wire 1 - in $end
$var wire 1 . reset $end
$var parameter 32 / B1 $end
$var parameter 32 0 B2 $end
$var parameter 32 1 B3 $end
$var parameter 32 2 B4 $end
$var parameter 32 3 B5 $end
$var parameter 32 4 B6 $end
$var parameter 32 5 B7 $end
$var parameter 32 6 B8 $end
$var parameter 32 7 I $end
$var parameter 32 8 NV $end
$var parameter 32 9 P $end
$var parameter 32 : S $end
$var parameter 32 ; V $end
$var reg 1 < done $end
$var reg 13 = next_state [12:0] $end
$var reg 1 > odd $end
$var reg 8 ? out_byte [7:0] $end
$var reg 1 @ parity_reset $end
$var reg 13 A state [12:0] $end
$var reg 1 B temp1 $end
$var reg 1 C temp2 $end

$scope module inst1 $end
$var wire 1 , clk $end
$var wire 1 D in $end
$var wire 1 E reset $end
$var reg 1 F odd $end
$upscope $end
$upscope $end
$upscope $end

$scope begin design_sv_unit $end
$upscope $end

$scope begin std $end
$upscope $end
$enddefinitions $end
#0
$dumpvars
1.
x-
0,
xD
1E
0!
x"
x#
bx $
1%
0&
b0 '
0(
0)
0*
0+
b1 /
b10 0
b11 1
b100 2
b101 3
b110 4
b111 5
b1000 6
b0 7
b1100 8
b1001 9
b1010 :
b1011 ;
x<
bx =
x>
bx ?
1@
bx A
xB
xC
xF
$end
#5
1!
1&
1,
b1 A
0F
0>
b0xx =
0<
0"
#10
0!
0&
0,
#15
1!
1&
1,
#20
0!
0&
0,
#25
1!
1&
1,
0%
b1000110 '
1+
1(
1#
0.
0@
0E
1-
b1 =
#30
0!
0&
0,
#35
1!
1&
1,
1B
1D
#40
0!
0&
0,
#45
1!
1&
1,
1F
1C
1>
#50
0!
0&
0,
#55
1!
1&
1,
b1xxxxxxx ?
0F
0#
0>
b1xxxxxxx $
0-
1@
b10 =
1E
#60
0!
0&
0,
#65
1!
1&
1,
b10 A
0B
b11xxxxxx ?
b11xxxxxx $
b100 =
0@
0D
0E
#70
0!
0&
0,
#75
1!
1&
1,
0C
b111xxxxx ?
b100 A
1#
b1000 =
b111xxxxx $
1-
#80
0!
0&
0,
#85
1!
1&
1,
b1000 A
1B
b111xxxx ?
b111xxxx $
b10000 =
1D
#90
0!
0&
0,
#95
1!
1&
1,
1F
1C
b111xxx ?
b10000 A
0#
b100000 =
b111xxx $
1>
0-
#100
0!
0&
0,
#105
1!
1&
1,
b100000 A
0B
b100111xx ?
0F
0>
b100111xx $
b1000000 =
0D
#110
0!
0&
0,
#115
1!
1&
1,
0C
b1100111x ?
b1000000 A
b10000000 =
b1100111x $
#120
0!
0&
0,
#125
1!
1&
1,
b10000000 A
b1100111 ?
1#
b1100111 $
b100000000 =
1-
#130
0!
0&
0,
#135
1!
1&
1,
1B
b110011 ?
b100000000 A
0#
b1000000000 =
b110011 $
1D
0-
#140
0!
0&
0,
#145
1!
1&
1,
1F
b1000000000 A
0B
1C
b11001 ?
b11001 $
b10000000000 =
1>
0D
#150
0!
0&
0,
#155
1!
1&
1,
0C
b10001100 ?
b10000000000 A
1#
b100000000000 =
b10001100 $
1-
#160
0!
0&
0,
#165
1!
1&
1,
b100000000000 A
1B
b1000110 ?
1*
b1000110 $
1<
b1 =
1D
1"
#167
0*
b1101111 '
1)
0+
#170
0!
0&
0,
#175
1!
1&
1,
0F
1C
b100011 ?
b1 A
0<
b100011 $
0>
0"
#180
0!
0&
0,
#185
1!
1&
1,
b10010001 ?
1F
1>
b10010001 $
#190
0!
0&
0,
#195
1!
1&
1,
0F
b11001000 ?
0#
b11001000 $
0>
0-
1@
b10 =
1E
#200
0!
0&
0,
#205
1!
1&
1,
b10 A
0B
b11100100 ?
1#
b11100100 $
b100 =
0@
0D
0E
1-
#210
0!
0&
0,
#215
1!
1&
1,
1B
0C
b11110010 ?
b100 A
b1000 =
b11110010 $
1D
#220
0!
0&
0,
#225
1!
1&
1,
1F
b1000 A
1C
b1111001 ?
b1111001 $
b10000 =
1>
#230
0!
0&
0,
#235
1!
1&
1,
b10111100 ?
b10000 A
0F
0>
b100000 =
b10111100 $
#240
0!
0&
0,
#245
1!
1&
1,
1F
b100000 A
b11011110 ?
0#
b11011110 $
b1000000 =
1>
0-
#250
0!
0&
0,
#255
1!
1&
1,
0B
b11101111 ?
b1000000 A
0F
1#
0>
b10000000 =
b11101111 $
0D
1-
#260
0!
0&
0,
#265
1!
1&
1,
b10000000 A
1B
0C
b11110111 ?
b11110111 $
b100000000 =
1D
#270
0!
0&
0,
#275
1!
1&
1,
1F
1C
b1111011 ?
b100000000 A
0#
b1000000000 =
b1111011 $
1>
0-
#280
0!
0&
0,
#285
1!
1&
1,
b1000000000 A
0B
b10111101 ?
0F
1#
0>
b10111101 $
b10000000000 =
0D
1-
#290
0!
0&
0,
#295
1!
1&
1,
1B
0C
b11011110 ?
b10000000000 A
0#
b1000000000000 =
b11011110 $
1D
0-
#300
0!
0&
0,
#305
1!
1&
1,
1F
b1000000000000 A
0B
1C
b1101111 ?
1*
b1101111 $
1>
0D
#307
0*
b11011101 '
1+
1#
1-
b1 =
#310
0!
0&
0,
#315
1!
1&
1,
1B
0C
b10110111 ?
b1 A
b10110111 $
1D
#320
0!
0&
0,
#325
1!
1&
1,
0F
1C
b1011011 ?
b1011011 $
0>
#330
0!
0&
0,
#335
1!
1&
1,
b10101101 ?
1F
0#
1>
b10101101 $
0-
1@
b10 =
1E
#340
0!
0&
0,
#345
1!
1&
1,
b10 A
0F
0B
b11010110 ?
1#
b11010110 $
0>
b100 =
0@
0D
0E
1-
#350
0!
0&
0,
#355
1!
1&
1,
1B
0C
b11101011 ?
b100 A
0#
b1000 =
b11101011 $
1D
0-
#360
0!
0&
0,
#365
1!
1&
1,
1F
b1000 A
0B
1C
b1110101 ?
1#
b1110101 $
b10000 =
1>
0D
1-
#370
0!
0&
0,
#375
1!
1&
1,
1B
0C
b10111010 ?
b10000 A
b100000 =
b10111010 $
1D
#380
0!
0&
0,
#385
1!
1&
1,
0F
b100000 A
1C
b1011101 ?
b1011101 $
b1000000 =
0>
#390
0!
0&
0,
#395
1!
1&
1,
b10101110 ?
b1000000 A
1F
0#
1>
b10000000 =
b10101110 $
0-
#400
0!
0&
0,
#405
1!
1&
1,
0F
b10000000 A
0B
b11010111 ?
1#
b11010111 $
b100000000 =
0>
0D
1-
#410
0!
0&
0,
#415
1!
1&
1,
1B
0C
b11101011 ?
b100000000 A
b1000000000 =
b11101011 $
1D
#420
0!
0&
0,
#425
1!
1&
1,
1F
b1000000000 A
1C
b1110101 ?
b1110101 $
b10000000000 =
1>
#430
0!
0&
0,
#435
1!
1&
1,
b10111010 ?
b10000000000 A
0F
0>
b100000000000 =
b10111010 $
#440
0!
0&
0,
#445
1!
1&
1,
1F
b100000000000 A
b11011101 ?
1*
b11011101 $
b1 =
1>
1<
1"
#447
0*
b10011110 '
0)
0+
#450
0!
0&
0,
#455
1!
1&
1,
b11101110 ?
b1 A
0F
0>
0<
b11101110 $
0"
#460
0!
0&
0,
#465
1!
1&
1,
1F
b11110111 ?
b11110111 $
1>
#470
0!
0&
0,
#475
1!
1&
1,
b11111011 ?
0F
0#
0>
b11111011 $
0-
1@
b10 =
1E
#480
0!
0&
0,
#485
1!
1&
1,
b10 A
0B
b11111101 ?
b11111101 $
b100 =
0@
0D
0E
#490
0!
0&
0,
#495
1!
1&
1,
0C
b11111110 ?
b100 A
1#
b1000 =
b11111110 $
1-
#500
0!
0&
0,
#505
1!
1&
1,
b1000 A
1B
b1111111 ?
b1111111 $
b10000 =
1D
#510
0!
0&
0,
#515
1!
1&
1,
1F
1C
b111111 ?
b10000 A
b100000 =
b111111 $
1>
#520
0!
0&
0,
#525
1!
1&
1,
b100000 A
b10011111 ?
0F
0>
b10011111 $
b1000000 =
#530
0!
0&
0,
#535
1!
1&
1,
1F
b11001111 ?
b1000000 A
0#
b10000000 =
b11001111 $
1>
0-
#540
0!
0&
0,
#545
1!
1&
1,
b10000000 A
0B
b11100111 ?
0F
0>
b11100111 $
b100000000 =
0D
#550
0!
0&
0,
#555
1!
1&
1,
0C
b11110011 ?
b100000000 A
1#
b1000000000 =
b11110011 $
1-
#560
0!
0&
0,
#565
1!
1&
1,
b1000000000 A
1B
b1111001 ?
0#
b1111001 $
b10000000000 =
1D
0-
#570
0!
0&
0,
#575
1!
1&
1,
1F
0B
1C
b111100 ?
b10000000000 A
b1000000000000 =
b111100 $
1>
0D
#580
0!
0&
0,
#585
1!
1&
1,
b1000000000000 A
0C
b10011110 ?
1*
b10011110 $
#587
0*
b110010 '
1#
1-
b1 =
#590
0!
0&
0,
#595
1!
1&
1,
1B
b1001111 ?
b1 A
b1001111 $
1D
#600
0!
0&
0,
#605
1!
1&
1,
0F
1C
b100111 ?
b100111 $
0>
#610
0!
0&
0,
#615
1!
1&
1,
b10010011 ?
1F
0#
1>
b10010011 $
0-
1@
b10 =
1E
#620
0!
0&
0,
#625
1!
1&
1,
b10 A
0F
0B
b11001001 ?
b11001001 $
0>
b100 =
0@
0D
0E
#630
0!
0&
0,
#635
1!
1&
1,
0C
b11100100 ?
b100 A
1#
b1000 =
b11100100 $
1-
#640
0!
0&
0,
#645
1!
1&
1,
b1000 A
1B
b1110010 ?
0#
b1110010 $
b10000 =
1D
0-
#650
0!
0&
0,
#655
1!
1&
1,
1F
0B
1C
b111001 ?
b10000 A
b100000 =
b111001 $
1>
0D
#660
0!
0&
0,
#665
1!
1&
1,
b100000 A
0C
b10011100 ?
1#
b10011100 $
b1000000 =
1-
#670
0!
0&
0,
#675
1!
1&
1,
1B
b1001110 ?
b1000000 A
b10000000 =
b1001110 $
1D
#680
0!
0&
0,
#685
1!
1&
1,
0F
b10000000 A
1C
b100111 ?
0#
b100111 $
b100000000 =
0>
0-
#690
0!
0&
0,
#695
1!
1&
1,
0B
b10010011 ?
b100000000 A
1F
1>
b1000000000 =
b10010011 $
0D
#700
0!
0&
0,
#705
1!
1&
1,
b1000000000 A
0C
b11001001 ?
b11001001 $
b10000000000 =
#710
0!
0&
0,
#715
1!
1&
1,
b1100100 ?
b10000000000 A
b1000000000000 =
b1100100 $
#720
0!
0&
0,
#725
1!
1&
1,
b1000000000000 A
b110010 ?
1*
b110010 $
#727
0*
b1101001 '
1)
1#
1-
b1 =
#730
0!
0&
0,
#735
1!
1&
1,
1B
b11001 ?
b1 A
b11001 $
1D
#740
0!
0&
0,
#745
1!
1&
1,
0F
1C
b1100 ?
b1100 $
0>
#750
0!
0&
0,
#755
1!
1&
1,
b10000110 ?
1F
0#
1>
b10000110 $
0-
1@
b10 =
1E
#760
0!
0&
0,
#765
1!
1&
1,
b10 A
0F
0B
b11000011 ?
1#
b11000011 $
0>
b100 =
0@
0D
0E
1-
#770
0!
0&
0,
#775
1!
1&
1,
1B
0C
b11100001 ?
b100 A
0#
b1000 =
b11100001 $
1D
0-
#780
0!
0&
0,
#785
1!
1&
1,
1F
b1000 A
0B
1C
b1110000 ?
b1110000 $
b10000 =
1>
0D
#790
0!
0&
0,
#795
1!
1&
1,
0C
b10111000 ?
b10000 A
1#
b100000 =
b10111000 $
1-
#800
0!
0&
0,
#805
1!
1&
1,
b100000 A
1B
b1011100 ?
0#
b1011100 $
b1000000 =
1D
0-
#810
0!
0&
0,
#815
1!
1&
1,
0F
0B
1C
b101110 ?
b1000000 A
1#
b10000000 =
b101110 $
0>
0D
1-
#820
0!
0&
0,
#825
1!
1&
1,
b10000000 A
1B
0C
b10010111 ?
b10010111 $
b100000000 =
1D
#830
0!
0&
0,
#835
1!
1&
1,
1F
1C
b1001011 ?
b100000000 A
0#
b1000000000 =
b1001011 $
1>
0-
#840
0!
0&
0,
#845
1!
1&
1,
b1000000000 A
0B
b10100101 ?
0F
1#
0>
b10100101 $
b10000000000 =
0D
1-
#850
0!
0&
0,
#855
1!
1&
1,
1B
0C
b11010010 ?
b10000000000 A
0#
b1000000000000 =
b11010010 $
1D
0-
#860
0!
0&
0,
#865
1!
1&
1,
1F
b1000000000000 A
0B
1C
b1101001 ?
1*
b1101001 $
1>
0D
#867
0*
b10001 '
1#
1-
b1 =
#870
0!
0&
0,
#875
1!
1&
1,
1B
0C
b10110100 ?
b1 A
b10110100 $
1D
#880
0!
0&
0,
#885
1!
1&
1,
0F
1C
b1011010 ?
b1011010 $
0>
#890
0!
0&
0,
#895
1!
1&
1,
b10101101 ?
1F
0#
1>
b10101101 $
0-
1@
b10 =
1E
#900
0!
0&
0,
#905
1!
1&
1,
b10 A
0F
0B
b11010110 ?
1#
b11010110 $
0>
b100 =
0@
0D
0E
1-
#910
0!
0&
0,
#915
1!
1&
1,
1B
0C
b11101011 ?
b100 A
0#
b1000 =
b11101011 $
1D
0-
#920
0!
0&
0,
#925
1!
1&
1,
1F
b1000 A
0B
1C
b1110101 ?
b1110101 $
b10000 =
1>
0D
#930
0!
0&
0,
#935
1!
1&
1,
0C
b10111010 ?
b10000 A
b100000 =
b10111010 $
#940
0!
0&
0,
#945
1!
1&
1,
b100000 A
b1011101 ?
1#
b1011101 $
b1000000 =
1-
#950
0!
0&
0,
#955
1!
1&
1,
1B
b101110 ?
b1000000 A
0#
b10000000 =
b101110 $
1D
0-
#960
0!
0&
0,
#965
1!
1&
1,
0F
b10000000 A
0B
1C
b10111 ?
b10111 $
b100000000 =
0>
0D
#970
0!
0&
0,
#975
1!
1&
1,
0C
b10001011 ?
b100000000 A
b1000000000 =
b10001011 $
#980
0!
0&
0,
#985
1!
1&
1,
b1000000000 A
b1000101 ?
1#
b1000101 $
b10000000000 =
1-
#990
0!
0&
0,
#995
1!
1&
1,
1B
b100010 ?
b10000000000 A
0#
b1000000000000 =
b100010 $
1D
0-
#1000
0!
0&
0,
#1005
1!
1&
1,
1F
b1000000000000 A
0B
1C
b10001 ?
1*
b10001 $
1>
0D
#1007
0*
b10100011 '
0)
0(
1#
1-
b1 =
#1010
0!
0&
0,
#1015
1!
1&
1,
1B
0C
b10001000 ?
b1 A
b10001000 $
1D
#1020
0!
0&
0,
#1025
1!
1&
1,
0F
1C
b1000100 ?
b1000100 $
0>
#1030
0!
0&
0,
#1035
1!
1&
1,
b10100010 ?
1F
0#
1>
b10100010 $
0-
1@
b10 =
1E
#1040
0!
0&
0,
#1045
1!
1&
1,
b10 A
0F
0B
b11010001 ?
1#
b11010001 $
0>
b100 =
0@
0D
0E
1-
#1050
0!
0&
0,
#1055
1!
1&
1,
1B
0C
b11101000 ?
b100 A
b1000 =
b11101000 $
1D
#1060
0!
0&
0,
#1065
1!
1&
1,
1F
b1000 A
1C
b1110100 ?
0#
b1110100 $
b10000 =
1>
0-
#1070
0!
0&
0,
#1075
1!
1&
1,
0B
b10111010 ?
b10000 A
0F
0>
b100000 =
b10111010 $
0D
#1080
0!
0&
0,
#1085
1!
1&
1,
b100000 A
0C
b11011101 ?
b11011101 $
b1000000 =
#1090
0!
0&
0,
#1095
1!
1&
1,
b1101110 ?
b1000000 A
1#
b10000000 =
b1101110 $
1-
#1100
0!
0&
0,
#1105
1!
1&
1,
b10000000 A
1B
b110111 ?
0#
b110111 $
b100000000 =
1D
0-
#1110
0!
0&
0,
#1115
1!
1&
1,
1F
0B
1C
b11011 ?
b100000000 A
1#
b1000000000 =
b11011 $
1>
0D
1-
#1120
0!
0&
0,
#1125
1!
1&
1,
b1000000000 A
1B
0C
b10001101 ?
0#
b10001101 $
b10000000000 =
1D
0-
#1130
0!
0&
0,
#1135
1!
1&
1,
0F
0B
1C
b1000110 ?
b10000000000 A
b1000000000000 =
b1000110 $
0>
0D
#1140
0!
0&
0,
#1145
1!
1&
1,
b1000000000000 A
0C
b10100011 ?
1*
b10100011 $
#1147
0*
b1101010 '
1#
1-
b1 =
#1150
0!
0&
0,
#1155
1!
1&
1,
1B
b1010001 ?
b1 A
b1010001 $
1D
#1160
0!
0&
0,
#1165
1!
1&
1,
1F
1C
b101000 ?
b101000 $
1>
#1170
0!
0&
0,
#1175
1!
1&
1,
b10010100 ?
0F
0#
0>
b10010100 $
0-
1@
b10 =
1E
#1180
0!
0&
0,
#1185
1!
1&
1,
b10 A
0B
b11001010 ?
b11001010 $
b100 =
0@
0D
0E
#1190
0!
0&
0,
#1195
1!
1&
1,
0C
b11100101 ?
b100 A
1#
b1000 =
b11100101 $
1-
#1200
0!
0&
0,
#1205
1!
1&
1,
b1000 A
1B
b1110010 ?
0#
b1110010 $
b10000 =
1D
0-
#1210
0!
0&
0,
#1215
1!
1&
1,
1F
0B
1C
b111001 ?
b10000 A
1#
b100000 =
b111001 $
1>
0D
1-
#1220
0!
0&
0,
#1225
1!
1&
1,
b100000 A
1B
0C
b10011100 ?
0#
b10011100 $
b1000000 =
1D
0-
#1230
0!
0&
0,
#1235
1!
1&
1,
0F
0B
1C
b1001110 ?
b1000000 A
1#
b10000000 =
b1001110 $
0>
0D
1-
#1240
0!
0&
0,
#1245
1!
1&
1,
b10000000 A
1B
0C
b10100111 ?
b10100111 $
b100000000 =
1D
#1250
0!
0&
0,
#1255
1!
1&
1,
1F
1C
b1010011 ?
b100000000 A
0#
b1000000000 =
b1010011 $
1>
0-
#1260
0!
0&
0,
#1265
1!
1&
1,
b1000000000 A
0B
b10101001 ?
0F
0>
b10101001 $
b10000000000 =
0D
#1270
0!
0&
0,
#1275
1!
1&
1,
0C
b11010100 ?
b10000000000 A
b1000000000000 =
b11010100 $
#1280
0!
0&
0,
#1285
1!
1&
1,
b1000000000000 A
b1101010 ?
1*
b1101010 $
#1287
0*
b10010000 '
1+
1#
1-
b1 =
#1290
0!
0&
0,
#1295
1!
1&
1,
1B
b110101 ?
b1 A
b110101 $
1D
#1300
0!
0&
0,
#1305
1!
1&
1,
1F
1C
b11010 ?
b11010 $
1>
#1310
0!
0&
0,
#1315
1!
1&
1,
b10001101 ?
0F
0#
0>
b10001101 $
0-
1@
b10 =
1E
#1320
0!
0&
0,
#1325
1!
1&
1,
b10 A
0B
b11000110 ?
b11000110 $
b100 =
0@
0D
0E
#1330
0!
0&
0,
#1335
1!
1&
1,
0C
b11100011 ?
b100 A
b1000 =
b11100011 $
#1340
0!
0&
0,
#1345
1!
1&
1,
b1000 A
b1110001 ?
b1110001 $
b10000 =
#1350
0!
0&
0,
#1355
1!
1&
1,
b111000 ?
b10000 A
b100000 =
b111000 $
#1360
0!
0&
0,
#1365
1!
1&
1,
b100000 A
b11100 ?
1#
b11100 $
b1000000 =
1-
#1370
0!
0&
0,
#1375
1!
1&
1,
1B
b1110 ?
b1000000 A
0#
b10000000 =
b1110 $
1D
0-
#1380
0!
0&
0,
#1385
1!
1&
1,
1F
b10000000 A
0B
1C
b111 ?
b111 $
b100000000 =
1>
0D
#1390
0!
0&
0,
#1395
1!
1&
1,
0C
b10000011 ?
b100000000 A
1#
b1000000000 =
b10000011 $
1-
#1400
0!
0&
0,
#1405
1!
1&
1,
b1000000000 A
1B
b1000001 ?
0#
b1000001 $
b10000000000 =
1D
0-
#1410
0!
0&
0,
#1415
1!
1&
1,
0F
0B
1C
b100000 ?
b10000000000 A
1#
b100000000000 =
b100000 $
0>
0D
1-
#1420
0!
0&
0,
#1425
1!
1&
1,
b100000000000 A
1B
0C
b10010000 ?
1*
b10010000 $
b1 =
1D
#1427
0*
b10001100 '
1)
#1430
0!
0&
0,
#1435
1!
1&
1,
1F
1C
b1001000 ?
b1 A
b1001000 $
1>
#1440
0!
0&
0,
#1445
1!
1&
1,
b10100100 ?
0F
0>
b10100100 $
#1450
0!
0&
0,
#1455
1!
1&
1,
1F
b11010010 ?
0#
b11010010 $
1>
0-
1@
b10 =
1E
#1460
0!
0&
0,
#1465
1!
1&
1,
b10 A
0B
b11101001 ?
0F
0>
b11101001 $
b100 =
0@
0D
0E
#1470
0!
0&
0,
#1475
1!
1&
1,
0C
b11110100 ?
b100 A
b1000 =
b11110100 $
#1480
0!
0&
0,
#1485
1!
1&
1,
b1000 A
b1111010 ?
1#
b1111010 $
b10000 =
1-
#1490
0!
0&
0,
#1495
1!
1&
1,
1B
b111101 ?
b10000 A
b100000 =
b111101 $
1D
#1500
0!
0&
0,
#1505
1!
1&
1,
1F
b100000 A
1C
b11110 ?
0#
b11110 $
b1000000 =
1>
0-
#1510
0!
0&
0,
#1515
1!
1&
1,
0B
b10001111 ?
b1000000 A
0F
0>
b10000000 =
b10001111 $
0D
#1520
0!
0&
0,
#1525
1!
1&
1,
b10000000 A
0C
b11000111 ?
b11000111 $
b100000000 =
#1530
0!
0&
0,
#1535
1!
1&
1,
b1100011 ?
b100000000 A
1#
b1000000000 =
b1100011 $
1-
#1540
0!
0&
0,
#1545
1!
1&
1,
b1000000000 A
1B
b110001 ?
b110001 $
b10000000000 =
1D
#1550
0!
0&
0,
#1555
1!
1&
1,
1F
1C
b11000 ?
b10000000000 A
b100000000000 =
b11000 $
1>
#1560
0!
0&
0,
#1565
1!
1&
1,
b100000000000 A
b10001100 ?
0F
1*
0>
b10001100 $
b1 =
#1567
0*
b11101010 '
0+
#1570
0!
0&
0,
#1575
1!
1&
1,
1F
b11000110 ?
b1 A
b11000110 $
1>
#1580
0!
0&
0,
#1585
1!
1&
1,
b11100011 ?
0F
0>
b11100011 $
#1590
0!
0&
0,
#1595
1!
1&
1,
1F
b11110001 ?
0#
b11110001 $
1>
0-
1@
b10 =
1E
#1600
0!
0&
0,
#1605
1!
1&
1,
b10 A
0B
b11111000 ?
0F
0>
b11111000 $
b100 =
0@
0D
0E
#1610
0!
0&
0,
#1615
1!
1&
1,
0C
b11111100 ?
b100 A
1#
b1000 =
b11111100 $
1-
#1620
0!
0&
0,
#1625
1!
1&
1,
b1000 A
1B
b1111110 ?
0#
b1111110 $
b10000 =
1D
0-
#1630
0!
0&
0,
#1635
1!
1&
1,
1F
0B
1C
b111111 ?
b10000 A
1#
b100000 =
b111111 $
1>
0D
1-
#1640
0!
0&
0,
#1645
1!
1&
1,
b100000 A
1B
0C
b10011111 ?
0#
b10011111 $
b1000000 =
1D
0-
#1650
0!
0&
0,
#1655
1!
1&
1,
0F
0B
1C
b1001111 ?
b1000000 A
1#
b10000000 =
b1001111 $
0>
0D
1-
#1660
0!
0&
0,
#1665
1!
1&
1,
b10000000 A
1B
0C
b10100111 ?
b10100111 $
b100000000 =
1D
#1670
0!
0&
0,
#1675
1!
1&
1,
1F
1C
b1010011 ?
b100000000 A
b1000000000 =
b1010011 $
1>
#1680
0!
0&
0,
#1685
1!
1&
1,
b1000000000 A
b10101001 ?
0F
0>
b10101001 $
b10000000000 =
#1690
0!
0&
0,
#1695
1!
1&
1,
1F
b11010100 ?
b10000000000 A
0#
b1000000000000 =
b11010100 $
1>
0-
#1700
0!
0&
0,
#1705
1!
1&
1,
b1000000000000 A
0B
b11101010 ?
0F
1*
0>
b11101010 $
0D
#1707
0*
b11000000 '
0)
1+
1#
1-
b1 =
#1710
0!
0&
0,
#1715
1!
1&
1,
1B
0C
b11110101 ?
b1 A
b11110101 $
1D
#1720
0!
0&
0,
#1725
1!
1&
1,
1F
1C
b1111010 ?
b1111010 $
1>
#1730
0!
0&
0,
#1735
1!
1&
1,
b10111101 ?
0F
0#
0>
b10111101 $
0-
1@
b10 =
1E
#1740
0!
0&
0,
#1745
1!
1&
1,
b10 A
0B
b11011110 ?
b11011110 $
b100 =
0@
0D
0E
#1750
0!
0&
0,
#1755
1!
1&
1,
0C
b11101111 ?
b100 A
b1000 =
b11101111 $
#1760
0!
0&
0,
#1765
1!
1&
1,
b1000 A
b1110111 ?
b1110111 $
b10000 =
#1770
0!
0&
0,
#1775
1!
1&
1,
b111011 ?
b10000 A
b100000 =
b111011 $
#1780
0!
0&
0,
#1785
1!
1&
1,
b100000 A
b11101 ?
b11101 $
b1000000 =
#1790
0!
0&
0,
#1795
1!
1&
1,
b1110 ?
b1000000 A
b10000000 =
b1110 $
#1800
0!
0&
0,
#1805
1!
1&
1,
b10000000 A
b111 ?
1#
b111 $
b100000000 =
1-
#1810
0!
0&
0,
#1815
1!
1&
1,
1B
b11 ?
b100000000 A
b1000000000 =
b11 $
1D
#1820
0!
0&
0,
#1825
1!
1&
1,
1F
b1000000000 A
1C
b1 ?
0#
b1 $
b10000000000 =
1>
0-
#1830
0!
0&
0,
#1835
1!
1&
1,
0B
b10000000 ?
b10000000000 A
0F
1#
0>
b100000000000 =
b10000000 $
0D
1-
#1840
0!
0&
0,
#1845
1!
1&
1,
b100000000000 A
1B
0C
b11000000 ?
1*
b11000000 $
b1 =
1D
#1847
0*
b11011011 '
#1850
0!
0&
0,
#1855
1!
1&
1,
1F
1C
b1100000 ?
b1 A
b1100000 $
1>
#1860
0!
0&
0,
#1865
1!
1&
1,
b10110000 ?
0F
0>
b10110000 $
#1870
0!
0&
0,
#1875
1!
1&
1,
1F
b11011000 ?
0#
b11011000 $
1>
0-
1@
b10 =
1E
#1880
0!
0&
0,
#1885
1!
1&
1,
b10 A
0B
b11101100 ?
0F
1#
0>
b11101100 $
b100 =
0@
0D
0E
1-
#1890
0!
0&
0,
#1895
1!
1&
1,
1B
0C
b11110110 ?
b100 A
b1000 =
b11110110 $
1D
#1900
0!
0&
0,
#1905
1!
1&
1,
1F
b1000 A
1C
b1111011 ?
0#
b1111011 $
b10000 =
1>
0-
#1910
0!
0&
0,
#1915
1!
1&
1,
0B
b10111101 ?
b10000 A
0F
1#
0>
b100000 =
b10111101 $
0D
1-
#1920
0!
0&
0,
#1925
1!
1&
1,
b100000 A
1B
0C
b11011110 ?
b11011110 $
b1000000 =
1D
#1930
0!
0&
0,
#1935
1!
1&
1,
1F
1C
b1101111 ?
b1000000 A
0#
b10000000 =
b1101111 $
1>
0-
#1940
0!
0&
0,
#1945
1!
1&
1,
b10000000 A
0B
b10110111 ?
0F
1#
0>
b10110111 $
b100000000 =
0D
1-
#1950
0!
0&
0,
#1955
1!
1&
1,
1B
0C
b11011011 ?
b100000000 A
b1000000000 =
b11011011 $
1D
#1960
0!
0&
0,
#1965
1!
1&
1,
1F
b1000000000 A
1C
b1101101 ?
0#
b1101101 $
b10000000000 =
1>
0-
#1970
0!
0&
0,
#1975
1!
1&
1,
0B
b10110110 ?
b10000000000 A
0F
1#
0>
b100000000000 =
b10110110 $
0D
1-
#1980
0!
0&
0,
#1985
1!
1&
1,
b100000000000 A
1B
0C
b11011011 ?
1*
b11011011 $
b1 =
1D
#1990
0!
0&
0,
#1995
1!
1&
1,
1F
1C
b1101101 ?
b1 A
b1101101 $
1>
